{
  "defaultSeverity": "error",
  "extends": [
    "tslint:recommended"
  ],
  "jsRules": {},
  "rules": {
    "quotemark": [ true, "single" ],
    "semicolon": [ true, "never" ],
    "trailing-comma": [ false ]
  },
  "rulesDirectory": []
}
